{
	"success": true,
	"activities": [
		{
			"rowid": 1,
			"name": "Administrative tasks",
			"bgcolor": "#f4a460",
			"fgcolor": "#808080"
		},
		{
			"rowid": 2,
			"name": "Project",
			"bgcolor": "#CFD8FA",
			"fgcolor": "#000000",
			"children": [
				{
					"rowid": 3,
					"name": "First project",
					"children": [
						{
							"rowid": 6,
							"name": "Task 1"
						},
						{
							"rowid": 7,
							"name": "Task 2"
						}
					]
				},
				{
					"rowid": 4,
					"name": "Second project",
					"children": [
						{
							"rowid": 8,
							"name": "Task 3"
						},
						{
							"rowid": 9,
							"name": "Task 4"
						}
					]
				}
			]
		},
		{
			"rowid": 5,
			"name": "Sales"
		}
	]
}
