{
	"success": true,
	"entries": [
		{
			"rowid": 1,
			"activity": 5,
			"notes": "Some work",
			"dtstart": "2013-03-04 09:00:00",
			"dtend": "2013-03-04 10:00:00"
		},
		{
			"rowid": 4,
			"activity": 2,
			"sub_activity": 3,
			"sub_sub_activity": 7,
			"notes": "Some work",
			"dtstart": "2013-03-04 10:00:00",
			"dtend": "2013-03-04 11:00:00"
		},
		{
			"rowid": 2,
			"activity": 1,
			"notes": "Internal meeting",
			"dtstart": "2013-03-04 13:00:00",
			"dtend": "2013-03-04 15:00:00"
		},
		{
			"rowid": 3,
			"activity": 2,
			"sub_activity": 4,
			"sub_sub_activity": 8,
			"notes": "Some more work",
			"dtstart": "2013-03-04 15:00:00",
			"dtend": "2013-03-04 18:30:00"
		}
	]
}
